<?xml version="1.0" encoding="iso-8859-1"?>
<!DOCTYPE svg PUBLIC "-//W3C//DTD SVG 1.1//EN" "http://www.w3.org/Graphics/SVG/1.1/DTD/svg11.dtd">
<svg version="1.1" xmlns="http://www.w3.org/2000/svg" xmlns:xlink="http://www.w3.org/1999/xlink" x="0px" y="0px" width="2048px"
	 height="2048px" viewBox="0 0 2048 2048" style="enable-background:new 0 0 2048 2048;" xml:space="preserve">
<g>
	<path id="Green" style="fill:#72B533;" d="M1328.277,870.643v-1.779V358.265c0-23.262,8.41-43.304,25.252-60.124
		c16.864-16.819,37.519-25.294,61.903-25.294v-69.699h-87.155c-42.985,0-79.592,15.127-109.799,45.295
		c-30.213,30.208-45.295,66.815-45.295,109.822v512.378c0,11.651-0.615,24.404-1.739,38.304
		c-1.185,13.981-4.362,26.732-9.595,38.386c-5.234,11.65-13.941,21.522-26.121,29.616c-12.203,8.137-28.792,12.202-49.703,12.202
		v0.679H903.71v68.893h182.315v0.17c22.057,0,38.941,4.025,50.549,12.161c11.588,8.135,20.041,18.304,25.275,30.505
		c5.232,12.204,8.41,25.549,9.595,40.082c1.124,14.532,1.739,27.626,1.739,39.193v508.903v1.779v1.695
		c1.121,43.048,16.545,79.062,46.182,108.084c29.637,29.024,65.927,43.557,108.912,43.557h87.155v-68.002
		c-24.385,0-45.039-8.39-61.903-25.212c-16.842-16.862-25.252-37.456-25.252-61.901v-508.903v-1.694
		c0-42.964-15.105-79.615-45.293-109.823c-30.23-30.254-66.838-45.337-109.801-45.337c42.963,0,79.292-14.829,108.909-44.402
		C1311.71,949.917,1327.111,913.606,1328.277,870.643z"/>
	<path id="Plot" style="fill:#FFFFFF;" d="M929.345,272.847c-37.159,0-69.423,13.389-96.711,40.083
		c-27.327,26.732-40.97,58.682-40.97,95.88v1.695v1228.728c0,38.344,13.643,70.883,40.97,97.577
		c27.288,26.734,59.552,40.04,96.711,40.04v68.002c-40.698,0-78.703-7.541-114.166-22.624
		c-35.423-15.127-66.522-36.06-93.235-62.752c-26.734-26.733-47.666-57.536-62.729-92.362
		c-15.105-34.83-22.647-72.667-22.647-113.301V495.923c0-40.674,7.542-78.724,22.647-114.143
		c15.063-35.463,35.994-66.522,62.729-93.257c26.713-26.693,57.813-47.624,93.235-62.751
		c35.463-15.083,73.468-22.625,114.166-22.625V272.847z"/>
</g>
</svg>
