<?xml version="1.0" encoding="utf-8"?>
<!DOCTYPE svg PUBLIC "-//W3C//DTD SVG 1.1//EN" "http://www.w3.org/Graphics/SVG/1.1/DTD/svg11.dtd">
<svg version="1.1" xmlns="http://www.w3.org/2000/svg" xmlns:xlink="http://www.w3.org/1999/xlink" x="0px" y="0px" width="2048px" height="2048px" viewBox="0 0 2048 2048" enable-background="new 0 0 2048 2048" xml:space="preserve">
	<g>
		<rect id="grey" style="fill:#E7E7E7;" width="2048" height="2048"/>
	</g>
	<g>
		<path id="Red" fill="#C8201B" d="M1328.28,870.64v-1.78v-510.6c0-23.26,8.41-43.3,25.25-60.12
			c16.86-16.82,37.52-25.29,61.9-25.29v-69.7h-87.16c-42.99,0-79.59,15.13-109.8,45.29c-30.21,30.21-45.29,66.82-45.29,109.82v512.38
			c0,11.65-0.62,24.4-1.74,38.3c-1.18,13.98-4.36,26.73-9.59,38.39c-5.23,11.65-13.94,21.52-26.12,29.62
			c-12.2,8.14-28.79,12.2-49.7,12.2v0.68H903.71v68.89h182.32v0.17c22.06,0,38.94,4.03,50.55,12.16c11.59,8.13,20.04,18.3,25.28,30.5
			c5.23,12.2,8.41,25.55,9.59,40.08c1.12,14.53,1.74,27.63,1.74,39.19v508.9v1.78v1.7c1.12,43.05,16.54,79.06,46.18,108.08
			c29.64,29.02,65.93,43.56,108.91,43.56h87.16v-68c-24.38,0-45.04-8.39-61.9-25.21c-16.84-16.86-25.25-37.46-25.25-61.9v-508.9
			v-1.69c0-42.96-15.11-79.62-45.29-109.82c-30.23-30.25-66.84-45.34-109.8-45.34c42.96,0,79.29-14.83,108.91-44.4
			C1311.71,949.92,1327.11,913.61,1328.28,870.64z"/>
		<path id="Plot" fill="#1C1C1B" d="M929.34,272.85c-37.16,0-69.42,13.39-96.71,40.08c-27.33,26.73-40.97,58.68-40.97,95.88v1.7
			v1228.73c0,38.34,13.64,70.88,40.97,97.58c27.29,26.73,59.55,40.04,96.71,40.04v68c-40.7,0-78.7-7.54-114.17-22.62
			c-35.42-15.13-66.52-36.06-93.24-62.75c-26.73-26.73-47.67-57.54-62.73-92.36c-15.11-34.83-22.65-72.67-22.65-113.3V495.92
			c0-40.67,7.54-78.72,22.65-114.14c15.06-35.46,35.99-66.52,62.73-93.26c26.71-26.69,57.81-47.62,93.24-62.75
			c35.46-15.08,73.47-22.63,114.17-22.63V272.85z"/>
	</g>
</svg>