<?xml version="1.0" encoding="utf-8"?>
<!-- Generator: Adobe Illustrator 16.0.0, SVG Export Plug-In . SVG Version: 6.00 Build 0)  -->
<!DOCTYPE svg PUBLIC "-//W3C//DTD SVG 1.1//EN" "http://www.w3.org/Graphics/SVG/1.1/DTD/svg11.dtd">
<svg version="1.1" xmlns="http://www.w3.org/2000/svg" xmlns:xlink="http://www.w3.org/1999/xlink" x="0px" y="0px" width="2048px"
	 height="2048px" viewBox="0 0 2048 2048" style="enable-background:new 0 0 2048 2048;" xml:space="preserve">
<style type="text/css">
<![CDATA[
	.st0{display:none;fill:#FFFFFF;}
	.st1{display:none;fill:#9C9B9B;}
	.st2{fill:#EA601C;}
	.st3{fill:#1C1C1B;}
	.st4{display:none;fill:#007CC0;}
	.st5{display:none;fill:#72B533;}
	.st6{fill:#1C1C1B;stroke:#FFFFFF;stroke-miterlimit:10;}
	.st7{fill:#C8201B;}
	.st8{fill:#E7E7E7;stroke:#FFFFFF;stroke-miterlimit:10;}
	.st9{fill:#FFD300;}
	.st10{fill:#FFFFFF;}
	.st11{display:none;fill:#E7E7E7;}
	.st12{fill:#9C9B9B;}
	.st13{display:none;fill:#EA601C;}
	.st14{display:none;fill:#1C1C1B;}
	.st15{display:none;fill:#1D1D1B;}
	.st16{fill:#007CC0;}
	.st17{fill:#72B533;}
]]>
</style>
<g id="Backgrounds_Square">
	<rect id="light_4_" x="-2115.337" y="2" class="st0" width="2048" height="2048"/>
	<rect id="grey_4_" x="-2115.337" y="2" class="st8" width="2048" height="2048"/>
	<rect id="dark_5_" x="-2115.337" y="2" class="st6" width="2048" height="2048"/>
</g>
<g id="Logos_Square">
	<path id="Yellow" class="st9" d="M-1427.789,897.938v-1.487V470.066c0-19.424,7.024-36.159,21.087-50.205
		c14.082-14.048,31.331-21.123,51.693-21.123v-58.203h-72.78c-35.894,0-66.464,12.633-91.691,37.823
		c-25.228,25.228-37.823,55.796-37.823,91.708v427.871c0,9.729-0.513,20.379-1.452,31.984c-0.989,11.676-3.644,22.324-8.013,32.055
		c-4.37,9.73-11.641,17.975-21.813,24.731c-10.19,6.794-24.042,10.19-41.503,10.19v0.566h-152.247v57.529h152.247v0.143
		c18.417,0,32.516,3.361,42.21,10.155c9.677,6.794,16.735,15.285,21.105,25.474c4.37,10.189,7.024,21.335,8.013,33.472
		c0.938,12.134,1.452,23.068,1.452,32.728v424.969v1.484v1.416c0.937,35.947,13.816,66.021,38.566,90.258
		c24.749,24.236,55.054,36.373,90.948,36.373h72.78v-56.787c-20.362,0-37.611-7.006-51.693-21.054
		c-14.063-14.081-21.087-31.277-21.087-51.69v-424.969v-1.415c0-35.877-12.613-66.482-37.823-91.708
		c-25.245-25.266-55.814-37.86-91.691-37.86c35.876,0,66.216-12.383,90.948-37.079
		C-1441.623,964.135-1428.762,933.814-1427.789,897.938z"/>
	<path id="White" class="st10" d="M-1427.789,897.938v-1.487V470.066c0-19.424,7.024-36.159,21.087-50.205
		c14.082-14.048,31.331-21.123,51.693-21.123v-58.203h-72.78c-35.894,0-66.464,12.633-91.691,37.823
		c-25.228,25.228-37.823,55.796-37.823,91.708v427.871c0,9.729-0.513,20.379-1.452,31.984c-0.989,11.676-3.644,22.324-8.013,32.055
		c-4.37,9.73-11.641,17.975-21.813,24.731c-10.19,6.794-24.042,10.19-41.503,10.19v0.566h-152.247v57.529h152.247v0.143
		c18.417,0,32.516,3.361,42.21,10.155c9.677,6.794,16.735,15.285,21.105,25.474c4.37,10.189,7.024,21.335,8.013,33.472
		c0.938,12.134,1.452,23.068,1.452,32.728v424.969v1.484v1.416c0.937,35.947,13.816,66.021,38.566,90.258
		c24.749,24.236,55.054,36.373,90.948,36.373h72.78v-56.787c-20.362,0-37.611-7.006-51.693-21.054
		c-14.063-14.081-21.087-31.277-21.087-51.69v-424.969v-1.415c0-35.877-12.613-66.482-37.823-91.708
		c-25.245-25.266-55.814-37.86-91.691-37.86c35.876,0,66.216-12.383,90.948-37.079
		C-1441.623,964.135-1428.762,933.814-1427.789,897.938z"/>
	<path id="Red" class="st7" d="M-1427.789,897.938v-1.487V470.066c0-19.424,7.024-36.159,21.087-50.205
		c14.082-14.048,31.331-21.123,51.693-21.123v-58.203h-72.78c-35.894,0-66.464,12.633-91.691,37.823
		c-25.228,25.228-37.823,55.796-37.823,91.708v427.871c0,9.729-0.513,20.379-1.452,31.984c-0.989,11.676-3.644,22.324-8.013,32.055
		c-4.37,9.73-11.641,17.975-21.813,24.731c-10.19,6.794-24.042,10.19-41.503,10.19v0.566h-152.247v57.529h152.247v0.143
		c18.417,0,32.516,3.361,42.21,10.155c9.677,6.794,16.735,15.285,21.105,25.474c4.37,10.189,7.024,21.335,8.013,33.472
		c0.938,12.134,1.452,23.068,1.452,32.728v424.969v1.484v1.416c0.937,35.947,13.816,66.021,38.566,90.258
		c24.749,24.236,55.054,36.373,90.948,36.373h72.78v-56.787c-20.362,0-37.611-7.006-51.693-21.054
		c-14.063-14.081-21.087-31.277-21.087-51.69v-424.969v-1.415c0-35.877-12.613-66.482-37.823-91.708
		c-25.245-25.266-55.814-37.86-91.691-37.86c35.876,0,66.216-12.383,90.948-37.079
		C-1441.623,964.135-1428.762,933.814-1427.789,897.938z"/>
	<path id="Orange" class="st2" d="M-1427.789,897.938v-1.487V470.066c0-19.424,7.024-36.159,21.087-50.205
		c14.082-14.048,31.331-21.123,51.693-21.123v-58.203h-72.78c-35.894,0-66.464,12.633-91.691,37.823
		c-25.228,25.228-37.823,55.796-37.823,91.708v427.871c0,9.729-0.513,20.379-1.452,31.984c-0.989,11.676-3.644,22.324-8.013,32.055
		c-4.37,9.73-11.641,17.975-21.813,24.731c-10.19,6.794-24.042,10.19-41.503,10.19v0.566h-152.247v57.529h152.247v0.143
		c18.417,0,32.516,3.361,42.21,10.155c9.677,6.794,16.735,15.285,21.105,25.474c4.37,10.189,7.024,21.335,8.013,33.472
		c0.938,12.134,1.452,23.068,1.452,32.728v424.969v1.484v1.416c0.937,35.947,13.816,66.021,38.566,90.258
		c24.749,24.236,55.054,36.373,90.948,36.373h72.78v-56.787c-20.362,0-37.611-7.006-51.693-21.054
		c-14.063-14.081-21.087-31.277-21.087-51.69v-424.969v-1.415c0-35.877-12.613-66.482-37.823-91.708
		c-25.245-25.266-55.814-37.86-91.691-37.86c35.876,0,66.216-12.383,90.948-37.079
		C-1441.623,964.135-1428.762,933.814-1427.789,897.938z"/>
	<path id="Grey" class="st12" d="M-1427.789,897.938v-1.487V470.066c0-19.424,7.024-36.159,21.087-50.205
		c14.082-14.048,31.331-21.123,51.693-21.123v-58.203h-72.78c-35.894,0-66.464,12.633-91.691,37.823
		c-25.228,25.228-37.823,55.796-37.823,91.708v427.871c0,9.729-0.513,20.379-1.452,31.984c-0.989,11.676-3.644,22.324-8.013,32.055
		c-4.37,9.73-11.641,17.975-21.813,24.731c-10.19,6.794-24.042,10.19-41.503,10.19v0.566h-152.247v57.529h152.247v0.143
		c18.417,0,32.516,3.361,42.21,10.155c9.677,6.794,16.735,15.285,21.105,25.474c4.37,10.189,7.024,21.335,8.013,33.472
		c0.938,12.134,1.452,23.068,1.452,32.728v424.969v1.484v1.416c0.937,35.947,13.816,66.021,38.566,90.258
		c24.749,24.236,55.054,36.373,90.948,36.373h72.78v-56.787c-20.362,0-37.611-7.006-51.693-21.054
		c-14.063-14.081-21.087-31.277-21.087-51.69v-424.969v-1.415c0-35.877-12.613-66.482-37.823-91.708
		c-25.245-25.266-55.814-37.86-91.691-37.86c35.876,0,66.216-12.383,90.948-37.079
		C-1441.623,964.135-1428.762,933.814-1427.789,897.938z"/>
	<path id="Green" class="st17" d="M-1427.789,897.938v-1.487V470.066c0-19.424,7.024-36.159,21.087-50.205
		c14.082-14.048,31.331-21.123,51.693-21.123v-58.203h-72.78c-35.894,0-66.464,12.633-91.691,37.823
		c-25.228,25.228-37.823,55.796-37.823,91.708v427.871c0,9.729-0.513,20.379-1.452,31.984c-0.989,11.676-3.644,22.324-8.013,32.055
		c-4.37,9.73-11.641,17.975-21.813,24.731c-10.19,6.794-24.042,10.19-41.503,10.19v0.566h-152.247v57.529h152.247v0.143
		c18.417,0,32.516,3.361,42.21,10.155c9.677,6.794,16.735,15.285,21.105,25.474c4.37,10.189,7.024,21.335,8.013,33.472
		c0.938,12.134,1.452,23.068,1.452,32.728v424.969v1.484v1.416c0.937,35.947,13.816,66.021,38.566,90.258
		c24.749,24.236,55.054,36.373,90.948,36.373h72.78v-56.787c-20.362,0-37.611-7.006-51.693-21.054
		c-14.063-14.081-21.087-31.277-21.087-51.69v-424.969v-1.415c0-35.877-12.613-66.482-37.823-91.708
		c-25.245-25.266-55.814-37.86-91.691-37.86c35.876,0,66.216-12.383,90.948-37.079
		C-1441.623,964.135-1428.762,933.814-1427.789,897.938z"/>
	<path id="Blue" class="st16" d="M-1427.789,897.938v-1.487V470.066c0-19.424,7.024-36.159,21.087-50.205
		c14.082-14.048,31.331-21.123,51.693-21.123v-58.203h-72.78c-35.894,0-66.464,12.633-91.691,37.823
		c-25.228,25.228-37.823,55.796-37.823,91.708v427.871c0,9.729-0.513,20.379-1.452,31.984c-0.989,11.676-3.644,22.324-8.013,32.055
		c-4.37,9.73-11.641,17.975-21.813,24.731c-10.19,6.794-24.042,10.19-41.503,10.19v0.566h-152.247v57.529h152.247v0.143
		c18.417,0,32.516,3.361,42.21,10.155c9.677,6.794,16.735,15.285,21.105,25.474c4.37,10.189,7.024,21.335,8.013,33.472
		c0.938,12.134,1.452,23.068,1.452,32.728v424.969v1.484v1.416c0.937,35.947,13.816,66.021,38.566,90.258
		c24.749,24.236,55.054,36.373,90.948,36.373h72.78v-56.787c-20.362,0-37.611-7.006-51.693-21.054
		c-14.063-14.081-21.087-31.277-21.087-51.69v-424.969v-1.415c0-35.877-12.613-66.482-37.823-91.708
		c-25.245-25.266-55.814-37.86-91.691-37.86c35.876,0,66.216-12.383,90.948-37.079
		C-1441.623,964.135-1428.762,933.814-1427.789,897.938z"/>
	<path id="Black" class="st14" d="M-1427.789,897.938v-1.487V470.066c0-19.424,7.024-36.159,21.087-50.205
		c14.082-14.048,31.331-21.123,51.693-21.123v-58.203h-72.78c-35.894,0-66.464,12.633-91.691,37.823
		c-25.228,25.228-37.823,55.796-37.823,91.708v427.871c0,9.729-0.513,20.379-1.452,31.984c-0.989,11.676-3.644,22.324-8.013,32.055
		c-4.37,9.73-11.641,17.975-21.813,24.731c-10.19,6.794-24.042,10.19-41.503,10.19v0.566h-152.247v57.529h152.247v0.143
		c18.417,0,32.516,3.361,42.21,10.155c9.677,6.794,16.735,15.285,21.105,25.474c4.37,10.189,7.024,21.335,8.013,33.472
		c0.938,12.134,1.452,23.068,1.452,32.728v424.969v1.484v1.416c0.937,35.947,13.816,66.021,38.566,90.258
		c24.749,24.236,55.054,36.373,90.948,36.373h72.78v-56.787c-20.362,0-37.611-7.006-51.693-21.054
		c-14.063-14.081-21.087-31.277-21.087-51.69v-424.969v-1.415c0-35.877-12.613-66.482-37.823-91.708
		c-25.245-25.266-55.814-37.86-91.691-37.86c35.876,0,66.216-12.383,90.948-37.079
		C-1441.623,964.135-1428.762,933.814-1427.789,897.938z"/>
	<path id="_x3C_Plot_x3E__1_" class="st10" d="M-1760.923,398.738c-31.03,0-57.972,11.181-80.759,33.473
		c-22.821,22.322-34.213,49-34.213,80.067v1.413v1026.067c0,32.019,11.393,59.191,34.213,81.483
		c22.787,22.324,49.729,33.436,80.759,33.436v56.787c-33.984,0-65.721-6.299-95.335-18.894
		c-29.579-12.632-55.55-30.112-77.857-52.401c-22.326-22.325-39.804-48.047-52.383-77.13
		c-12.613-29.085-18.912-60.681-18.912-94.612V585.023c0-33.968,6.299-65.74,18.912-95.32
		c12.579-29.611,30.057-55.549,52.383-77.873c22.307-22.289,48.278-39.77,77.857-52.401c29.614-12.596,61.351-18.894,95.335-18.894
		V398.738z"/>
	<path id="_x3C_Plot_x3E_" class="st10" d="M-407.111,1653.261c31.066,0,57.991-11.18,80.812-33.472
		c22.786-22.322,34.178-49.001,34.178-80.03v-1.487V512.278c0-32.021-11.393-59.229-34.178-81.556
		c-22.821-22.289-49.745-33.471-80.812-33.471v-56.717c33.968,0,65.739,6.298,95.318,18.894
		c29.614,12.632,55.549,30.112,77.875,52.401c22.327,22.324,39.804,48.262,52.435,77.873c12.595,29.58,18.893,60.894,18.893,93.832
		v883.479c0,33.896-6.298,65.666-18.893,95.283c-12.63,29.611-30.108,55.548-52.435,77.873
		c-22.327,22.289-48.261,39.77-77.875,52.401c-29.579,12.595-61.35,18.894-95.318,18.894V1653.261z"/>
	<path class="st10" d="M-452.223,1651.918h-99.315v-0.637c-12.631,0-23.067-4.141-31.311-12.455
		c-8.244-8.174-12.384-18.15-12.384-29.791v-1268.5h-173.158v58.203c11.641,0,21.583,4.104,29.827,12.348
		c8.244,8.314,12.878,18.222,13.833,29.827v1210.368h-195.764c-31.067,0-57.745-11.182-80.07-33.508
		c-22.325-22.326-33.47-48.969-33.47-80.068V340.535h-173.186v58.203c11.641,0,21.583,4.104,29.846,12.348
		c8.225,8.314,12.825,18.222,13.816,29.827v1024.084c0,33.931,6.297,65.704,18.93,95.282c12.595,29.65,30.073,55.584,52.381,77.839
		c22.299,22.325,48.022,39.839,77.141,52.437c29.119,12.631,60.608,18.893,94.611,18.893h368.957v-0.035h99.315V1651.918z"/>
</g>
<g>
	<circle id="light_3_" class="st10" cx="1026" cy="1026" r="1024"/>
	<circle id="grey_3_" class="st11" cx="1026" cy="1026" r="1024"/>
	<circle id="dark_4_" class="st15" cx="1026" cy="1026" r="1024"/>
</g>
<g>
	<path id="Yellow_1_" class="st9" d="M730.439,916.648v-1.27V551.29c0-16.586,5.998-30.876,18.007-42.871
		c12.024-11.995,26.753-18.037,44.14-18.037v-49.699h-62.146c-30.649,0-56.753,10.787-78.295,32.297
		c-21.541,21.542-32.297,47.644-32.297,78.31v365.358c0,8.307-0.438,17.401-1.238,27.311c-0.846,9.97-3.111,19.063-6.844,27.372
		c-3.73,8.309-9.939,15.349-18.626,21.118c-8.7,5.801-20.528,8.701-35.438,8.701v0.484H427.698v49.124h130.003v0.122
		c15.727,0,27.766,2.87,36.043,8.672c8.264,5.802,14.291,13.052,18.021,21.751c3.732,8.701,5.998,18.218,6.844,28.582
		c0.801,10.36,1.238,19.697,1.238,27.945v362.881v1.268v1.209c0.801,30.695,11.798,56.375,32.932,77.071
		c21.134,20.695,47.011,31.058,77.66,31.058h62.146v-48.49c-17.387,0-32.115-5.981-44.14-17.978
		c-12.009-12.023-18.007-26.707-18.007-44.138V1137.83v-1.208c0-30.635-10.77-56.769-32.297-78.309
		c-21.556-21.575-47.659-32.33-78.295-32.33c30.636,0,56.543-10.573,77.66-31.661C718.627,973.174,729.608,947.283,730.439,916.648z
		"/>
	<path id="White_1_" class="st10" d="M730.439,916.648v-1.27V551.29c0-16.586,5.998-30.876,18.007-42.871
		c12.024-11.995,26.753-18.037,44.14-18.037v-49.699h-62.146c-30.649,0-56.753,10.787-78.295,32.297
		c-21.541,21.542-32.297,47.644-32.297,78.31v365.358c0,8.307-0.438,17.401-1.238,27.311c-0.846,9.97-3.111,19.063-6.844,27.372
		c-3.73,8.309-9.939,15.349-18.626,21.118c-8.7,5.801-20.528,8.701-35.438,8.701v0.484H427.698v49.124h130.003v0.122
		c15.727,0,27.766,2.87,36.043,8.672c8.264,5.802,14.291,13.052,18.021,21.751c3.732,8.701,5.998,18.218,6.844,28.582
		c0.801,10.36,1.238,19.697,1.238,27.945v362.881v1.268v1.209c0.801,30.695,11.798,56.375,32.932,77.071
		c21.134,20.695,47.011,31.058,77.66,31.058h62.146v-48.49c-17.387,0-32.115-5.981-44.14-17.978
		c-12.009-12.023-18.007-26.707-18.007-44.138V1137.83v-1.208c0-30.635-10.77-56.769-32.297-78.309
		c-21.556-21.575-47.659-32.33-78.295-32.33c30.636,0,56.543-10.573,77.66-31.661C718.627,973.174,729.608,947.283,730.439,916.648z
		"/>
	<path id="Red_1_" class="st7" d="M730.439,916.648v-1.27V551.29c0-16.586,5.998-30.876,18.007-42.871
		c12.024-11.995,26.753-18.037,44.14-18.037v-49.699h-62.146c-30.649,0-56.753,10.787-78.295,32.297
		c-21.541,21.542-32.297,47.644-32.297,78.31v365.358c0,8.307-0.438,17.401-1.238,27.311c-0.846,9.97-3.111,19.063-6.844,27.372
		c-3.73,8.309-9.939,15.349-18.626,21.118c-8.7,5.801-20.528,8.701-35.438,8.701v0.484H427.698v49.124h130.003v0.122
		c15.727,0,27.766,2.87,36.043,8.672c8.264,5.802,14.291,13.052,18.021,21.751c3.732,8.701,5.998,18.218,6.844,28.582
		c0.801,10.36,1.238,19.697,1.238,27.945v362.881v1.268v1.209c0.801,30.695,11.798,56.375,32.932,77.071
		c21.134,20.695,47.011,31.058,77.66,31.058h62.146v-48.49c-17.387,0-32.115-5.981-44.14-17.978
		c-12.009-12.023-18.007-26.707-18.007-44.138V1137.83v-1.208c0-30.635-10.77-56.769-32.297-78.309
		c-21.556-21.575-47.659-32.33-78.295-32.33c30.636,0,56.543-10.573,77.66-31.661C718.627,973.174,729.608,947.283,730.439,916.648z
		"/>
	<path id="Orange_1_" class="st13" d="M730.439,916.648v-1.27V551.29c0-16.586,5.998-30.876,18.007-42.871
		c12.024-11.995,26.753-18.037,44.14-18.037v-49.699h-62.146c-30.649,0-56.753,10.787-78.295,32.297
		c-21.541,21.542-32.297,47.644-32.297,78.31v365.358c0,8.307-0.438,17.401-1.238,27.311c-0.846,9.97-3.111,19.063-6.844,27.372
		c-3.73,8.309-9.939,15.349-18.626,21.118c-8.7,5.801-20.528,8.701-35.438,8.701v0.484H427.698v49.124h130.003v0.122
		c15.727,0,27.766,2.87,36.043,8.672c8.264,5.802,14.291,13.052,18.021,21.751c3.732,8.701,5.998,18.218,6.844,28.582
		c0.801,10.36,1.238,19.697,1.238,27.945v362.881v1.268v1.209c0.801,30.695,11.798,56.375,32.932,77.071
		c21.134,20.695,47.011,31.058,77.66,31.058h62.146v-48.49c-17.387,0-32.115-5.981-44.14-17.978
		c-12.009-12.023-18.007-26.707-18.007-44.138V1137.83v-1.208c0-30.635-10.77-56.769-32.297-78.309
		c-21.556-21.575-47.659-32.33-78.295-32.33c30.636,0,56.543-10.573,77.66-31.661C718.627,973.174,729.608,947.283,730.439,916.648z
		"/>
	<path id="Grey_1_" class="st1" d="M730.439,916.648v-1.27V551.29c0-16.586,5.998-30.876,18.007-42.871
		c12.024-11.995,26.753-18.037,44.14-18.037v-49.699h-62.146c-30.649,0-56.753,10.787-78.295,32.297
		c-21.541,21.542-32.297,47.644-32.297,78.31v365.358c0,8.307-0.438,17.401-1.238,27.311c-0.846,9.97-3.111,19.063-6.844,27.372
		c-3.73,8.309-9.939,15.349-18.626,21.118c-8.7,5.801-20.528,8.701-35.438,8.701v0.484H427.698v49.124h130.003v0.122
		c15.727,0,27.766,2.87,36.043,8.672c8.264,5.802,14.291,13.052,18.021,21.751c3.732,8.701,5.998,18.218,6.844,28.582
		c0.801,10.36,1.238,19.697,1.238,27.945v362.881v1.268v1.209c0.801,30.695,11.798,56.375,32.932,77.071
		c21.134,20.695,47.011,31.058,77.66,31.058h62.146v-48.49c-17.387,0-32.115-5.981-44.14-17.978
		c-12.009-12.023-18.007-26.707-18.007-44.138V1137.83v-1.208c0-30.635-10.77-56.769-32.297-78.309
		c-21.556-21.575-47.659-32.33-78.295-32.33c30.636,0,56.543-10.573,77.66-31.661C718.627,973.174,729.608,947.283,730.439,916.648z
		"/>
	<path id="Green_1_" class="st5" d="M730.439,916.648v-1.27V551.29c0-16.586,5.998-30.876,18.007-42.871
		c12.024-11.995,26.753-18.037,44.14-18.037v-49.699h-62.146c-30.649,0-56.753,10.787-78.295,32.297
		c-21.541,21.542-32.297,47.644-32.297,78.31v365.358c0,8.307-0.438,17.401-1.238,27.311c-0.846,9.97-3.111,19.063-6.844,27.372
		c-3.73,8.309-9.939,15.349-18.626,21.118c-8.7,5.801-20.528,8.701-35.438,8.701v0.484H427.698v49.124h130.003v0.122
		c15.727,0,27.766,2.87,36.043,8.672c8.264,5.802,14.291,13.052,18.021,21.751c3.732,8.701,5.998,18.218,6.844,28.582
		c0.801,10.36,1.238,19.697,1.238,27.945v362.881v1.268v1.209c0.801,30.695,11.798,56.375,32.932,77.071
		c21.134,20.695,47.011,31.058,77.66,31.058h62.146v-48.49c-17.387,0-32.115-5.981-44.14-17.978
		c-12.009-12.023-18.007-26.707-18.007-44.138V1137.83v-1.208c0-30.635-10.77-56.769-32.297-78.309
		c-21.556-21.575-47.659-32.33-78.295-32.33c30.636,0,56.543-10.573,77.66-31.661C718.627,973.174,729.608,947.283,730.439,916.648z
		"/>
	<path id="Blue_1_" class="st4" d="M730.439,916.648v-1.27V551.29c0-16.586,5.998-30.876,18.007-42.871
		c12.024-11.995,26.753-18.037,44.14-18.037v-49.699h-62.146c-30.649,0-56.753,10.787-78.295,32.297
		c-21.541,21.542-32.297,47.644-32.297,78.31v365.358c0,8.307-0.438,17.401-1.238,27.311c-0.846,9.97-3.111,19.063-6.844,27.372
		c-3.73,8.309-9.939,15.349-18.626,21.118c-8.7,5.801-20.528,8.701-35.438,8.701v0.484H427.698v49.124h130.003v0.122
		c15.727,0,27.766,2.87,36.043,8.672c8.264,5.802,14.291,13.052,18.021,21.751c3.732,8.701,5.998,18.218,6.844,28.582
		c0.801,10.36,1.238,19.697,1.238,27.945v362.881v1.268v1.209c0.801,30.695,11.798,56.375,32.932,77.071
		c21.134,20.695,47.011,31.058,77.66,31.058h62.146v-48.49c-17.387,0-32.115-5.981-44.14-17.978
		c-12.009-12.023-18.007-26.707-18.007-44.138V1137.83v-1.208c0-30.635-10.77-56.769-32.297-78.309
		c-21.556-21.575-47.659-32.33-78.295-32.33c30.636,0,56.543-10.573,77.66-31.661C718.627,973.174,729.608,947.283,730.439,916.648z
		"/>
	<path id="Black_1_" class="st14" d="M730.439,916.648v-1.27V551.29c0-16.586,5.998-30.876,18.007-42.871
		c12.024-11.995,26.753-18.037,44.14-18.037v-49.699h-62.146c-30.649,0-56.753,10.787-78.295,32.297
		c-21.541,21.542-32.297,47.644-32.297,78.31v365.358c0,8.307-0.438,17.401-1.238,27.311c-0.846,9.97-3.111,19.063-6.844,27.372
		c-3.73,8.309-9.939,15.349-18.626,21.118c-8.7,5.801-20.528,8.701-35.438,8.701v0.484H427.698v49.124h130.003v0.122
		c15.727,0,27.766,2.87,36.043,8.672c8.264,5.802,14.291,13.052,18.021,21.751c3.732,8.701,5.998,18.218,6.844,28.582
		c0.801,10.36,1.238,19.697,1.238,27.945v362.881v1.268v1.209c0.801,30.695,11.798,56.375,32.932,77.071
		c21.134,20.695,47.011,31.058,77.66,31.058h62.146v-48.49c-17.387,0-32.115-5.981-44.14-17.978
		c-12.009-12.023-18.007-26.707-18.007-44.138V1137.83v-1.208c0-30.635-10.77-56.769-32.297-78.309
		c-21.556-21.575-47.659-32.33-78.295-32.33c30.636,0,56.543-10.573,77.66-31.661C718.627,973.174,729.608,947.283,730.439,916.648z
		"/>
	<path id="_x3C_Plot_x3E__3_" class="st3" d="M445.976,490.382c-26.496,0-49.501,9.547-68.958,28.582
		c-19.487,19.061-29.216,41.841-29.216,68.37v1.207v876.157c0,27.342,9.729,50.544,29.216,69.579
		c19.457,19.063,42.462,28.55,68.958,28.55v48.49c-29.019,0-56.118-5.378-81.406-16.133c-25.257-10.786-47.434-25.713-66.481-44.745
		c-19.064-19.063-33.988-41.026-44.729-65.861c-10.771-24.835-16.15-51.814-16.15-80.789V649.451c0-29.005,5.38-56.135,16.15-81.394
		c10.74-25.285,25.664-47.433,44.729-66.496c19.048-19.033,41.225-33.959,66.481-44.746c25.288-10.755,52.388-16.133,81.406-16.133
		V490.382z"/>
	<path id="_x3C_Plot_x3E__2_" class="st3" d="M1601.994,1561.617c26.527,0,49.519-9.547,69.006-28.582
		c19.456-19.061,29.184-41.842,29.184-68.338v-1.27V587.334c0-27.343-9.728-50.575-29.184-69.64
		c-19.487-19.033-42.479-28.581-69.006-28.581v-48.43c29.006,0,56.135,5.377,81.393,16.133
		c25.287,10.787,47.432,25.713,66.497,44.746c19.064,19.063,33.989,41.21,44.774,66.496c10.755,25.258,16.132,51.997,16.132,80.123
		v754.4c0,28.944-5.377,56.073-16.132,81.362c-10.785,25.285-25.71,47.433-44.774,66.496c-19.065,19.032-41.21,33.959-66.497,44.745
		c-25.258,10.755-52.387,16.133-81.393,16.133V1561.617z"/>
	<path class="st3" d="M1563.474,1560.471h-84.806v-0.544c-10.786,0-19.697-3.536-26.736-10.636
		c-7.039-6.979-10.576-15.498-10.576-25.438V440.683h-147.858v49.699c9.94,0,18.431,3.504,25.47,10.543
		c7.039,7.1,10.996,15.56,11.812,25.47v1033.531h-167.163c-26.527,0-49.307-9.549-68.371-28.612
		c-19.063-19.064-28.579-41.814-28.579-68.37V440.683H918.782v49.699c9.94,0,18.429,3.504,25.485,10.543
		c7.022,7.1,10.951,15.56,11.797,25.47v874.464c0,28.973,5.378,56.104,16.165,81.361c10.755,25.318,25.68,47.462,44.728,66.466
		c19.041,19.063,41.007,34.019,65.87,44.776c24.864,10.784,51.754,16.132,80.788,16.132h315.053v-0.03h84.806V1560.471z"/>
</g>
</svg>
