<?xml version="1.0" encoding="iso-8859-1"?>
<!-- Generator: Adobe Illustrator 16.0.0, SVG Export Plug-In . SVG Version: 6.00 Build 0)  -->
<!DOCTYPE svg PUBLIC "-//W3C//DTD SVG 1.1//EN" "http://www.w3.org/Graphics/SVG/1.1/DTD/svg11.dtd">
<svg version="1.1" id="logo-vertical" xmlns="http://www.w3.org/2000/svg" xmlns:xlink="http://www.w3.org/1999/xlink" x="0px"
	 y="0px" width="1920px" height="1080px" viewBox="0 0 1920 1080" style="enable-background:new 0 0 1920 1080;"
	 xml:space="preserve">
<g id="Background">
	<rect id="light" style="fill:#FFFFFF;" width="1920" height="1080"/>
</g>
<g id="Green">
	<path style="fill:#72B533;" d="M326.413,474.83v-0.716V268.857c0-9.351,3.376-17.406,10.15-24.168
		c6.779-6.763,15.082-10.169,24.881-10.169v-28.019h-35.031c-17.284,0-32,6.081-44.145,18.208
		c-12.14,12.144-18.207,26.86-18.207,44.147V474.83c0,4.684-0.247,9.811-0.698,15.396c-0.473,5.621-1.755,10.748-3.854,15.432
		c-2.108,4.684-5.604,8.652-10.505,11.905c-4.905,3.271-11.573,4.905-19.975,4.905v0.272h-73.29v27.694h73.29v0.068
		c8.861,0,15.648,1.618,20.315,4.889c4.658,3.27,8.056,7.357,10.164,12.264c2.099,4.904,3.381,10.27,3.854,16.112
		c0.451,5.842,0.698,11.104,0.698,15.755v204.575v0.715v0.682c0.451,17.305,6.655,31.782,18.564,43.449
		c11.915,11.667,26.503,17.509,43.787,17.509h35.031v-27.336c-9.799,0-18.102-3.373-24.881-10.135
		c-6.774-6.779-10.15-15.057-10.15-24.884V599.523v-0.682c0-17.271-6.077-32.004-18.213-44.147
		c-12.152-12.161-26.863-18.225-44.139-18.225c17.275,0,31.88-5.962,43.785-17.851C319.753,506.697,325.94,492.101,326.413,474.83z"
		/>
	<path style="fill:#72B533;" d="M1156.652,695.168l-38.8-80.597l-39.191,80.597l-54.23-140.567h31.578l26.179,70.378l35.665-73.921
		l35.649,73.921l26.74-70.378h31.203L1156.652,695.168z"/>
	<path style="fill:#72B533;" d="M1258.302,610.126h64.979v25.616h-64.979v28.973h73.528v25.445h-102.875V554.413h102.875v25.429
		h-73.528V610.126z"/>
	<path style="fill:#72B533;" d="M1442.558,619.221c12.075,4.071,22.652,17.084,22.652,31.562c0,30.267-23.027,39.378-47.537,39.378
		h-58.676V554.413h56.444c26.366,0,44.199,9.845,44.199,37.692C1459.641,604.352,1452.589,615.133,1442.558,619.221z
		 M1416.004,608.27c10.406,0,14.103-8.006,14.103-15.057c0-7.052-6.132-13.371-13.916-13.371h-27.677v28.428H1416.004z
		 M1435.88,649.3c0-8.175-6.131-15.414-18.77-15.414h-28.597v30.829h29.159C1429.749,664.715,1435.88,657.288,1435.88,649.3z"/>
</g>
<g id="Plot">
	<g>
		<path style="fill:#1D1D1B;" d="M166.045,234.521c-14.938,0-27.912,5.382-38.881,16.112c-10.981,10.748-16.466,23.59-16.466,38.545
			v0.681v493.938c0,15.414,5.484,28.495,16.466,39.226c10.969,10.747,23.943,16.096,38.881,16.096v27.336
			c-16.36,0-31.642-3.031-45.894-9.095c-14.239-6.081-26.741-14.495-37.484-25.225c-10.742-10.748-19.156-23.13-25.212-37.131
			c-6.076-14.001-9.108-29.21-9.108-45.544V324.195c0-16.351,3.032-31.646,9.108-45.885c6.056-14.256,14.47-26.74,25.212-37.488
			c10.743-10.73,23.245-19.145,37.484-25.225c14.252-6.063,29.533-9.096,45.894-9.096V234.521z"/>
		<path style="fill:#1D1D1B;" d="M817.743,838.436c14.955,0,27.934-5.383,38.902-16.113c10.986-10.747,16.471-23.589,16.471-38.526
			v-0.716V289.178c0-15.414-5.484-28.513-16.471-39.26c-10.969-10.73-23.947-16.112-38.902-16.112v-27.304
			c16.352,0,31.646,3.032,45.902,9.096c14.256,6.08,26.724,14.494,37.488,25.225c10.73,10.748,19.145,23.232,25.225,37.488
			c6.064,14.239,9.096,29.313,9.096,45.17v425.297c0,16.316-3.031,31.612-9.096,45.868c-6.08,14.256-14.494,26.74-25.225,37.488
			c-10.765,10.729-23.232,19.144-37.488,25.225c-14.256,6.063-29.551,9.095-45.902,9.095V838.436z"/>
		<path style="fill:#1D1D1B;" d="M796.027,837.788h-47.81v-0.307c-6.063,0-11.105-1.993-15.057-5.995
			c-3.969-3.935-5.961-8.737-5.961-14.342V206.502h-83.373v28.019c5.604,0,10.389,1.976,14.357,5.944
			c3.969,4.003,6.2,8.771,6.66,14.358v582.658h-94.24c-14.938,0-27.797-5.382-38.535-16.13
			c-10.743-10.747-16.113-23.572-16.113-38.544V206.502h-83.364v28.019c5.604,0,10.39,1.976,14.366,5.944
			c3.961,4.003,6.175,8.771,6.647,14.358v492.983c0,16.334,3.036,31.629,9.112,45.868c6.063,14.272,14.478,26.758,25.221,37.471
			c10.734,10.747,23.113,19.179,37.139,25.242c14.001,6.08,29.177,9.095,45.527,9.095h177.613v-0.017h47.81V837.788z"/>
	</g>
	<g>
		<path style="fill:#1D1D1B;" d="M1053.777,516.977h-29.347V381.229h29.347v56.633l52.937-56.633h36.398l-55.918,57.569
			l58.319,78.179h-36.023l-42.53-57.757l-13.183,13.745V516.977z"/>
		<path style="fill:#1D1D1B;" d="M1219.28,376.953l74.465,140.023h-32.105l-10.781-20.814h-63.326l-10.39,20.814h-32.311
			L1219.28,376.953z M1236.738,471.091l-17.458-35.461l-17.254,35.461H1236.738z"/>
		<path style="fill:#1D1D1B;" d="M1301.802,516.977V381.229h60.328c29.177,0,49.037,19.298,49.037,47.162
			c0,19.673-10.765,35.854-27.678,43.092c11.701,14.665,24.135,30.999,35.12,45.494h-35.12
			c-11.14-13.933-21.359-27.49-32.498-42.343h-20.047v42.343H1301.802z M1362.13,449.188c9.096,0,19.877-6.693,19.877-20.797
			c0-7.051-2.605-21.732-19.877-21.732h-31.186v42.529H1362.13z"/>
		<path style="fill:#1D1D1B;" d="M1537.665,516.977h-100.644V381.229h29.534v110.301h71.109V516.977z"/>
		<path style="fill:#1D1D1B;" d="M1559.075,516.977V381.229h29.33v135.748H1559.075z"/>
		<path style="fill:#1D1D1B;" d="M1676.257,406.658v110.318h-29.499V406.658h-39.566v-25.43h108.444v25.43H1676.257z"/>
		<path style="fill:#1D1D1B;" d="M1723.658,449c0-38.612,32.668-70.377,72.983-70.377c40.486,0,73.358,31.765,73.358,70.377
			c0,39.004-32.872,70.582-73.358,70.582C1756.326,519.582,1723.658,488.004,1723.658,449z M1752.801,449
			c0,23.402,19.689,44.012,43.841,44.012c24.322,0,43.824-20.609,43.824-44.012c0-23.198-19.502-43.637-43.824-43.637
			C1772.49,405.363,1752.801,425.802,1752.801,449z"/>
	</g>
	<g>
			<line style="fill:none;stroke:#9D9C9C;stroke-width:0.25;stroke-miterlimit:10;" x1="1023.971" y1="236.326" x2="1049.383" y2="205.498"/>
			<line style="fill:none;stroke:#9D9C9C;stroke-width:0.25;stroke-miterlimit:10;" x1="1023.579" y1="272.23" x2="1078.576" y2="205.498"/>
			<line style="fill:none;stroke:#9D9C9C;stroke-width:0.25;stroke-miterlimit:10;" x1="1023.647" y1="307.555" x2="1107.77" y2="205.498"/>
			<line style="fill:none;stroke:#9D9C9C;stroke-width:0.25;stroke-miterlimit:10;" x1="1024.993" y1="341.348" x2="1136.964" y2="205.498"/>
			<line style="fill:none;stroke:#9D9C9C;stroke-width:0.25;stroke-miterlimit:10;" x1="1054.203" y1="341.348" x2="1166.174" y2="205.498"/>
			<line style="fill:none;stroke:#9D9C9C;stroke-width:0.25;stroke-miterlimit:10;" x1="1083.396" y1="341.348" x2="1195.367" y2="205.498"/>
			<line style="fill:none;stroke:#9D9C9C;stroke-width:0.25;stroke-miterlimit:10;" x1="1112.59" y1="341.348" x2="1224.561" y2="205.498"/>
			<line style="fill:none;stroke:#9D9C9C;stroke-width:0.25;stroke-miterlimit:10;" x1="1141.783" y1="341.348" x2="1253.754" y2="205.498"/>
			<line style="fill:none;stroke:#9D9C9C;stroke-width:0.25;stroke-miterlimit:10;" x1="1170.994" y1="341.348" x2="1282.947" y2="205.498"/>
			<line style="fill:none;stroke:#9D9C9C;stroke-width:0.25;stroke-miterlimit:10;" x1="1200.17" y1="341.348" x2="1312.157" y2="205.498"/>
			<line style="fill:none;stroke:#9D9C9C;stroke-width:0.25;stroke-miterlimit:10;" x1="1229.381" y1="341.348" x2="1341.351" y2="205.498"/>
			<line style="fill:none;stroke:#9D9C9C;stroke-width:0.25;stroke-miterlimit:10;" x1="1258.574" y1="341.348" x2="1370.527" y2="205.498"/>
			<line style="fill:none;stroke:#9D9C9C;stroke-width:0.25;stroke-miterlimit:10;" x1="1287.768" y1="341.348" x2="1399.737" y2="205.498"/>
			<line style="fill:none;stroke:#9D9C9C;stroke-width:0.25;stroke-miterlimit:10;" x1="1316.961" y1="341.348" x2="1428.931" y2="205.498"/>
			<line style="fill:none;stroke:#9D9C9C;stroke-width:0.25;stroke-miterlimit:10;" x1="1346.154" y1="341.348" x2="1458.124" y2="205.498"/>
			<line style="fill:none;stroke:#9D9C9C;stroke-width:0.25;stroke-miterlimit:10;" x1="1375.348" y1="341.348" x2="1487.317" y2="205.498"/>
			<line style="fill:none;stroke:#9D9C9C;stroke-width:0.25;stroke-miterlimit:10;" x1="1404.541" y1="341.348" x2="1516.511" y2="205.498"/>
			<line style="fill:none;stroke:#9D9C9C;stroke-width:0.25;stroke-miterlimit:10;" x1="1433.751" y1="341.348" x2="1545.705" y2="205.498"/>
			<line style="fill:none;stroke:#9D9C9C;stroke-width:0.25;stroke-miterlimit:10;" x1="1462.944" y1="341.348" x2="1574.915" y2="205.498"/>
			<line style="fill:none;stroke:#9D9C9C;stroke-width:0.25;stroke-miterlimit:10;" x1="1492.138" y1="341.348" x2="1604.108" y2="205.498"/>
			<line style="fill:none;stroke:#9D9C9C;stroke-width:0.25;stroke-miterlimit:10;" x1="1521.331" y1="341.348" x2="1633.302" y2="205.498"/>
			<line style="fill:none;stroke:#9D9C9C;stroke-width:0.25;stroke-miterlimit:10;" x1="1550.524" y1="341.348" x2="1662.495" y2="205.498"/>
			<line style="fill:none;stroke:#9D9C9C;stroke-width:0.25;stroke-miterlimit:10;" x1="1579.718" y1="341.348" x2="1691.706" y2="205.498"/>
			<line style="fill:none;stroke:#9D9C9C;stroke-width:0.25;stroke-miterlimit:10;" x1="1608.929" y1="341.348" x2="1720.882" y2="205.498"/>
			<line style="fill:none;stroke:#9D9C9C;stroke-width:0.25;stroke-miterlimit:10;" x1="1638.104" y1="341.348" x2="1750.075" y2="205.498"/>
			<line style="fill:none;stroke:#9D9C9C;stroke-width:0.25;stroke-miterlimit:10;" x1="1667.315" y1="341.348" x2="1779.286" y2="205.498"/>
			<line style="fill:none;stroke:#9D9C9C;stroke-width:0.25;stroke-miterlimit:10;" x1="1696.509" y1="341.348" x2="1808.479" y2="205.498"/>
			<line style="fill:none;stroke:#9D9C9C;stroke-width:0.25;stroke-miterlimit:10;" x1="1725.702" y1="341.348" x2="1837.673" y2="205.498"/>
			<line style="fill:none;stroke:#9D9C9C;stroke-width:0.25;stroke-miterlimit:10;" x1="1754.623" y1="341.348" x2="1866.576" y2="205.498"/>
			<line style="fill:none;stroke:#9D9C9C;stroke-width:0.25;stroke-miterlimit:10;" x1="1783.526" y1="341.348" x2="1868.893" y2="237.791"/>
			<line style="fill:none;stroke:#9D9C9C;stroke-width:0.25;stroke-miterlimit:10;" x1="1812.448" y1="341.348" x2="1868.858" y2="272.911"/>
			<line style="fill:none;stroke:#9D9C9C;stroke-width:0.25;stroke-miterlimit:10;" x1="1841.352" y1="341.348" x2="1868.858" y2="307.98"/>
	</g>
	<g>
			<line style="fill:none;stroke:#9D9C9C;stroke-width:0.25;stroke-miterlimit:10;" x1="1868.501" y1="760.87" x2="1843.089" y2="730.042"/>
			<line style="fill:none;stroke:#9D9C9C;stroke-width:0.25;stroke-miterlimit:10;" x1="1868.893" y1="796.758" x2="1813.878" y2="730.042"/>
			<line style="fill:none;stroke:#9D9C9C;stroke-width:0.25;stroke-miterlimit:10;" x1="1868.808" y1="832.082" x2="1784.685" y2="730.042"/>
			<line style="fill:none;stroke:#9D9C9C;stroke-width:0.25;stroke-miterlimit:10;" x1="1867.462" y1="865.875" x2="1755.491" y2="730.042"/>
			<line style="fill:none;stroke:#9D9C9C;stroke-width:0.25;stroke-miterlimit:10;" x1="1838.269" y1="865.875" x2="1726.298" y2="730.042"/>
			<line style="fill:none;stroke:#9D9C9C;stroke-width:0.25;stroke-miterlimit:10;" x1="1809.075" y1="865.875" x2="1697.104" y2="730.042"/>
			<line style="fill:none;stroke:#9D9C9C;stroke-width:0.25;stroke-miterlimit:10;" x1="1779.865" y1="865.875" x2="1667.911" y2="730.042"/>
			<line style="fill:none;stroke:#9D9C9C;stroke-width:0.25;stroke-miterlimit:10;" x1="1750.688" y1="865.875" x2="1638.718" y2="730.042"/>
			<line style="fill:none;stroke:#9D9C9C;stroke-width:0.25;stroke-miterlimit:10;" x1="1721.479" y1="865.875" x2="1609.508" y2="730.042"/>
			<line style="fill:none;stroke:#9D9C9C;stroke-width:0.25;stroke-miterlimit:10;" x1="1692.285" y1="865.875" x2="1580.314" y2="730.042"/>
			<line style="fill:none;stroke:#9D9C9C;stroke-width:0.25;stroke-miterlimit:10;" x1="1663.092" y1="865.875" x2="1551.121" y2="730.042"/>
			<line style="fill:none;stroke:#9D9C9C;stroke-width:0.25;stroke-miterlimit:10;" x1="1633.897" y1="865.875" x2="1521.928" y2="730.042"/>
			<line style="fill:none;stroke:#9D9C9C;stroke-width:0.25;stroke-miterlimit:10;" x1="1604.688" y1="865.875" x2="1492.734" y2="730.042"/>
			<line style="fill:none;stroke:#9D9C9C;stroke-width:0.25;stroke-miterlimit:10;" x1="1575.511" y1="865.875" x2="1463.524" y2="730.042"/>
			<line style="fill:none;stroke:#9D9C9C;stroke-width:0.25;stroke-miterlimit:10;" x1="1546.317" y1="865.875" x2="1434.33" y2="730.042"/>
			<line style="fill:none;stroke:#9D9C9C;stroke-width:0.25;stroke-miterlimit:10;" x1="1517.107" y1="865.875" x2="1405.154" y2="730.042"/>
			<line style="fill:none;stroke:#9D9C9C;stroke-width:0.25;stroke-miterlimit:10;" x1="1487.914" y1="865.875" x2="1375.961" y2="730.042"/>
			<line style="fill:none;stroke:#9D9C9C;stroke-width:0.25;stroke-miterlimit:10;" x1="1458.721" y1="865.875" x2="1346.75" y2="730.042"/>
			<line style="fill:none;stroke:#9D9C9C;stroke-width:0.25;stroke-miterlimit:10;" x1="1429.527" y1="865.875" x2="1317.557" y2="730.042"/>
			<line style="fill:none;stroke:#9D9C9C;stroke-width:0.25;stroke-miterlimit:10;" x1="1400.334" y1="865.875" x2="1288.363" y2="730.042"/>
			<line style="fill:none;stroke:#9D9C9C;stroke-width:0.25;stroke-miterlimit:10;" x1="1371.141" y1="865.875" x2="1259.17" y2="730.042"/>
			<line style="fill:none;stroke:#9D9C9C;stroke-width:0.25;stroke-miterlimit:10;" x1="1341.931" y1="865.875" x2="1229.977" y2="730.042"/>
			<line style="fill:none;stroke:#9D9C9C;stroke-width:0.25;stroke-miterlimit:10;" x1="1312.737" y1="865.875" x2="1200.767" y2="730.042"/>
			<line style="fill:none;stroke:#9D9C9C;stroke-width:0.25;stroke-miterlimit:10;" x1="1283.544" y1="865.875" x2="1171.573" y2="730.042"/>
			<line style="fill:none;stroke:#9D9C9C;stroke-width:0.25;stroke-miterlimit:10;" x1="1254.35" y1="865.875" x2="1142.38" y2="730.042"/>
			<line style="fill:none;stroke:#9D9C9C;stroke-width:0.25;stroke-miterlimit:10;" x1="1225.156" y1="865.875" x2="1113.187" y2="730.042"/>
			<line style="fill:none;stroke:#9D9C9C;stroke-width:0.25;stroke-miterlimit:10;" x1="1195.963" y1="865.875" x2="1083.976" y2="730.042"/>
			<line style="fill:none;stroke:#9D9C9C;stroke-width:0.25;stroke-miterlimit:10;" x1="1166.753" y1="865.875" x2="1054.8" y2="730.042"/>
			<line style="fill:none;stroke:#9D9C9C;stroke-width:0.25;stroke-miterlimit:10;" x1="1137.849" y1="865.875" x2="1025.878" y2="730.042"/>
			<line style="fill:none;stroke:#9D9C9C;stroke-width:0.25;stroke-miterlimit:10;" x1="1108.945" y1="865.875" x2="1023.579" y2="762.318"/>
			<line style="fill:none;stroke:#9D9C9C;stroke-width:0.25;stroke-miterlimit:10;" x1="1080.024" y1="865.875" x2="1023.613" y2="797.438"/>
			<line style="fill:none;stroke:#9D9C9C;stroke-width:0.25;stroke-miterlimit:10;" x1="1051.12" y1="865.875" x2="1023.597" y2="832.508"/>
	</g>
</g>
</svg>