<?xml version="1.0" encoding="utf-8"?>
<!DOCTYPE svg PUBLIC "-//W3C//DTD SVG 1.1//EN" "http://www.w3.org/Graphics/SVG/1.1/DTD/svg11.dtd">
<svg version="1.1" xmlns="http://www.w3.org/2000/svg" xmlns:xlink="http://www.w3.org/1999/xlink" x="0px" y="0px" width="2200px" height="250px" viewBox="0 0 2200 250" style="enable-background:new 0 0 2200 250;" xml:space="preserve">
<g id="Dark">
	<g id="Colors">
		<g id="White">
			<path style="fill:#FFFFFF;" d="M1684.326,214.885l-50.828-105.574l-51.338,105.574l-71.035-184.13h41.361l34.291,92.188
				l46.721-96.829l46.699,96.829l35.029-92.188h40.873L1684.326,214.885z"/>
			<path style="fill:#FFFFFF;" d="M1817.473,104.569h85.115v33.555h-85.115v37.951h96.314v33.332h-134.752V31.593h134.752v33.309
				h-96.314V104.569z"/>
			<path style="fill:#FFFFFF;" d="M2058.826,116.484c15.82,5.333,29.674,22.378,29.674,41.341c0,39.646-30.162,51.582-62.268,51.582
				h-76.859V31.593h73.938c34.537,0,57.895,12.895,57.895,49.373C2081.205,97.006,2071.969,111.128,2058.826,116.484z
				 M2024.047,102.138c13.631,0,18.471-10.485,18.471-19.723c0-9.236-8.029-17.513-18.225-17.513h-36.256v37.236H2024.047z
				 M2050.08,155.884c0-10.707-8.029-20.191-24.584-20.191h-37.459v40.383h38.195C2042.051,176.075,2050.08,166.349,2050.08,155.884
				z"/>
			<path style="fill:#FFFFFF;" d="M161.004,103.37v-0.198V46.14c0-2.598,0.938-4.837,2.821-6.716
				c1.884-1.879,4.191-2.825,6.913-2.825v-7.785h-9.734c-4.802,0-8.89,1.689-12.265,5.059c-3.374,3.375-5.059,7.463-5.059,12.267
				v57.229c0,1.302-0.069,2.727-0.194,4.278c-0.131,1.563-0.487,2.987-1.07,4.288c-0.586,1.302-1.557,2.404-2.919,3.309
				c-1.363,0.909-3.216,1.363-5.55,1.363v0.075h-20.364v7.697h20.364v0.018c2.462,0,4.348,0.45,5.645,1.357
				c1.294,0.909,2.239,2.045,2.825,3.41c0.583,1.363,0.939,2.854,1.07,4.477c0.125,1.623,0.194,3.085,0.194,4.378v56.841v0.199
				v0.189c0.125,4.808,1.849,8.83,5.158,12.072c3.31,3.241,7.364,4.865,12.166,4.865h9.734v-7.596c-2.722,0-5.029-0.938-6.913-2.816
				c-1.882-1.883-2.821-4.183-2.821-6.914v-56.841v-0.19c0-4.798-1.688-8.893-5.059-12.268c-3.377-3.379-7.465-5.063-12.265-5.063
				c4.799,0,8.857-1.657,12.166-4.96C159.154,112.225,160.874,108.168,161.004,103.37z"/>
		</g>
	</g>
	<g id="Logo">
		<path style="fill:#1C1C1B;" d="M115.446,38.447c-4.15,0-7.756,1.496-10.804,4.477c-3.051,2.986-4.575,6.555-4.575,10.71v0.188
			v137.244c0,4.283,1.524,7.918,4.575,10.9c3.048,2.984,6.653,4.471,10.804,4.471v7.596c-4.546,0-8.792-0.842-12.752-2.527
			c-3.957-1.689-7.43-4.027-10.415-7.008c-2.985-2.986-5.323-6.428-7.006-10.316c-1.688-3.891-2.53-8.117-2.53-12.656V63.363
			c0-4.543,0.843-8.793,2.53-12.749c1.683-3.96,4.021-7.431,7.006-10.416c2.985-2.981,6.458-5.319,10.415-7.009
			c3.96-1.685,8.206-2.527,12.752-2.527V38.447z"/>
		<path style="fill:#1C1C1B;" d="M296.523,206.248c4.155,0,7.761-1.494,10.809-4.475c3.052-2.986,4.577-6.557,4.577-10.707v-0.199
			V53.634c0-4.283-1.524-7.922-4.577-10.908c-3.048-2.981-6.654-4.478-10.809-4.478v-7.586c4.543,0,8.792,0.843,12.754,2.527
			c3.961,1.689,7.425,4.027,10.416,7.009c2.982,2.985,5.32,6.456,7.009,10.416c1.685,3.956,2.527,8.145,2.527,12.552v118.172
			c0,4.533-0.842,8.781-2.527,12.744c-1.689,3.961-4.026,7.43-7.009,10.416c-2.99,2.98-6.455,5.318-10.416,7.008
			c-3.962,1.686-8.211,2.527-12.754,2.527V206.248z"/>
		<path style="fill:#1C1C1B;" d="M290.49,206.068h-13.285v-0.084c-1.685,0-3.085-0.555-4.183-1.668
			c-1.103-1.092-1.657-2.428-1.657-3.984V30.662h-23.164v7.785c1.557,0,2.887,0.549,3.988,1.652c1.103,1.111,1.723,2.437,1.85,3.988
			v161.896h-26.183c-4.152,0-7.724-1.496-10.708-4.482c-2.985-2.986-4.478-6.551-4.478-10.709V30.662h-23.163v7.785
			c1.557,0,2.887,0.549,3.992,1.652c1.101,1.111,1.716,2.437,1.847,3.988v136.979c0,4.537,0.843,8.789,2.532,12.744
			c1.685,3.967,4.023,7.436,7.008,10.412c2.982,2.986,6.422,5.33,10.319,7.014c3.891,1.689,8.105,2.527,12.651,2.527h49.349v-0.004
			h13.285V206.068z"/>
	</g>
	<g id="Karlito">
		<path style="fill:#1C1C1B;" d="M421.438,211.322h-38.002V35.537h38.002v73.334l68.548-73.334h47.134l-72.408,74.547
			l75.519,101.238h-46.649l-55.074-74.793l-17.07,17.801V211.322z"/>
		<path style="fill:#1C1C1B;" d="M635.76,30l96.428,181.322h-41.576l-13.96-26.953h-82.003l-13.455,26.953h-41.846L635.76,30z
			 M658.366,151.904L635.76,105.98l-22.343,45.924H658.366z"/>
		<path style="fill:#1C1C1B;" d="M742.62,211.322V35.537h78.122c37.782,0,63.499,24.988,63.499,61.07
			c0,25.477-13.939,46.428-35.842,55.803c15.154,18.99,31.253,40.143,45.479,58.912h-45.479
			c-14.424-18.043-27.657-35.6-42.082-54.832h-25.959v54.832H742.62z M820.741,123.537c11.777,0,25.739-8.666,25.739-26.93
			c0-9.129-3.375-28.143-25.739-28.143h-40.384v55.072H820.741z"/>
		<path style="fill:#1C1C1B;" d="M1048.041,211.322h-130.32V35.537h38.242v142.834h92.078V211.322z"/>
		<path style="fill:#1C1C1B;" d="M1075.764,211.322V35.537h37.982v175.785H1075.764z"/>
		<path style="fill:#1C1C1B;" d="M1227.51,68.465v142.857h-38.201V68.465h-51.236V35.537h140.43v32.928H1227.51z"/>
		<path style="fill:#1C1C1B;" d="M1288.891,123.297c0-50.002,42.303-91.137,94.51-91.137c52.426,0,94.992,41.135,94.992,91.137
			c0,50.508-42.566,91.398-94.992,91.398C1331.193,214.695,1288.891,173.805,1288.891,123.297z M1326.627,123.297
			c0,30.305,25.498,56.99,56.773,56.99c31.496,0,56.748-26.686,56.748-56.99c0-30.041-25.252-56.509-56.748-56.509
			C1352.125,66.788,1326.627,93.256,1326.627,123.297z"/>
	</g>
</g>
</svg>
