<?xml version="1.0" encoding="utf-8"?>
<!-- Generator: Adobe Illustrator 16.0.0, SVG Export Plug-In . SVG Version: 6.00 Build 0)  -->
<!DOCTYPE svg PUBLIC "-//W3C//DTD SVG 1.1//EN" "http://www.w3.org/Graphics/SVG/1.1/DTD/svg11.dtd">
<svg version="1.1" id="Calque_1" xmlns="http://www.w3.org/2000/svg" xmlns:xlink="http://www.w3.org/1999/xlink" x="0px" y="0px"
	 width="792px" height="792px" viewBox="0 0 792 792" enable-background="new 0 0 792 792" xml:space="preserve">
<path d="M729.688,513.002l-97.009-96.901c-12.892-12.893-30.402-20.088-48.663-20.088h-85.189
	c-19.015,0-34.379,15.363-34.379,34.377v85.08c0,18.263,7.198,35.667,20.089,48.56l97.01,96.899
	c13.428,13.429,35.236,13.429,48.663,0l99.369-99.37C743.116,548.131,743.116,526.43,729.688,513.002z M533.311,490.442
	c-14.288,0-25.78-11.496-25.78-25.783s11.492-25.782,25.78-25.782c14.29,0,25.783,11.495,25.783,25.782
	C559.094,478.839,547.599,490.442,533.311,490.442z M292.889,395.906c75.951,0,137.506-61.556,137.506-137.507
	C430.395,182.556,368.84,121,292.889,121c-75.951,0-137.506,61.556-137.506,137.506C155.381,334.35,216.938,395.906,292.889,395.906
	L292.889,395.906z M430.181,515.364v-78.528c-13.106-3.865-26.75-6.66-41.035-6.66h-17.941
	c-23.849,10.956-50.383,17.188-78.313,17.188c-27.932,0-54.359-6.231-78.315-17.188h-17.939
	c-79.711,0.107-144.382,64.777-144.382,144.488v44.69c0,28.469,23.098,51.563,51.565,51.563h378.145
	c16.649,0,31.259-8.058,40.713-20.304l-62.309-62.308C440.924,568.863,430.181,542.974,430.181,515.364L430.181,515.364z"/>
</svg>
