<?xml version="1.0" encoding="utf-8"?>
<!-- Generator: Adobe Illustrator 16.0.0, SVG Export Plug-In . SVG Version: 6.00 Build 0)  -->
<!DOCTYPE svg PUBLIC "-//W3C//DTD SVG 1.1//EN" "http://www.w3.org/Graphics/SVG/1.1/DTD/svg11.dtd">
<svg version="1.1" id="Calque_1" xmlns="http://www.w3.org/2000/svg" xmlns:xlink="http://www.w3.org/1999/xlink" x="0px" y="0px"
	 width="792px" height="792px" viewBox="0 0 792 792" enable-background="new 0 0 792 792" xml:space="preserve">
<path d="M759.376,338.625h-76.501v-76.5c0-10.519-8.605-19.125-19.125-19.125H625.5c-10.52,0-19.125,8.606-19.125,19.125v76.5h-76.5
	c-10.52,0-19.125,8.606-19.125,19.125V396c0,10.519,8.605,19.125,19.125,19.125h76.5v76.5c0,10.519,8.605,19.125,19.125,19.125
	h38.25c10.52,0,19.125-8.606,19.125-19.125v-76.5h76.501c10.519,0,19.124-8.606,19.124-19.125v-38.25
	C778.5,347.231,769.895,338.625,759.376,338.625z M281.25,396c84.508,0,152.998-68.491,152.998-153S365.759,90,281.25,90
	c-84.509,0-153,68.491-153,153S196.741,396,281.25,396z M388.35,434.25h-19.961c-26.536,12.193-56.06,19.127-87.137,19.127
	c-31.079,0-60.483-6.934-87.139-19.127H174.15c-88.693,0-160.65,71.958-160.65,160.65v49.726C13.5,676.301,39.2,702,70.875,702
	h420.75c31.676,0,57.376-25.699,57.376-57.373v-49.726C549.001,506.208,477.043,434.25,388.35,434.25z"/>
</svg>
