<?xml version="1.0" encoding="utf-8"?>
<!-- Generator: Adobe Illustrator 16.0.0, SVG Export Plug-In . SVG Version: 6.00 Build 0)  -->
<!DOCTYPE svg PUBLIC "-//W3C//DTD SVG 1.1//EN" "http://www.w3.org/Graphics/SVG/1.1/DTD/svg11.dtd">
<svg version="1.1" id="Calque_1" xmlns="http://www.w3.org/2000/svg" xmlns:xlink="http://www.w3.org/1999/xlink" x="0px" y="0px"
	 width="792px" height="792px" viewBox="0 0 792 792" enable-background="new 0 0 792 792" xml:space="preserve">
<path d="M281.268,395.999c84.505,0,152.994-68.49,152.994-152.996c0-84.507-68.488-152.997-152.994-152.997
	c-84.507,0-152.997,68.49-152.997,152.997C128.271,327.509,196.76,395.999,281.268,395.999z M388.365,434.247h-19.96
	c-26.536,12.193-56.059,19.127-87.135,19.127c-31.079,0-60.482-6.934-87.137-19.127h-19.963
	c-88.69,0-160.646,71.956-160.646,160.647v49.724c0,31.675,25.699,57.373,57.373,57.373h328.586
	c-2.87-8.127-4.066-16.734-3.108-25.459l8.127-72.791l1.434-13.269l9.443-9.442l92.396-92.396
	C478.489,455.523,436.057,434.247,388.365,434.247z M442.512,607.922l-8.129,72.913c-1.315,12.191,8.964,22.472,21.037,21.036
	l72.793-8.127l164.829-164.83l-85.701-85.701L442.512,607.922z M770.14,411.419l-45.301-45.303c-11.118-11.115-29.285-11.115-40.4,0
	l-45.182,45.183l-4.902,4.899l85.822,85.701l49.964-49.962C781.255,440.702,781.255,422.653,770.14,411.419z"/>
</svg>
